[gd_scene load_steps=2 format=2]

[ext_resource path="res://HUD.gd" type="Script" id=1]

[node name="HUD" type="Control"]
anchor_right = 1.0
anchor_bottom = 1.0
script = ExtResource( 1 )
__meta__ = {
"_edit_use_anchors_": false
}

[node name="SpeedHBoxContainer" type="HBoxContainer" parent="."]
anchor_top = 1.0
anchor_bottom = 1.0
margin_top = -40.0
margin_right = 75.0
__meta__ = {
"_edit_use_anchors_": false
}

[node name="Label" type="Label" parent="SpeedHBoxContainer"]
margin_top = 13.0
margin_right = 43.0
margin_bottom = 27.0
text = "Speed:"

[node name="SpeedLabel" type="Label" parent="SpeedHBoxContainer"]
margin_left = 47.0
margin_top = 13.0
margin_right = 47.0
margin_bottom = 27.0
