; Engine configuration file.
; It's best edited using the editor UI and not directly,
; since the parameters that go here are not all obvious.
;
; Format:
;   [section] ; section goes between []
;   param=value ; assign values to parameters

config_version=4

_global_script_classes=[  ]
_global_script_class_icons={

}

[application]

config/name="spacevroom"
run/main_scene="res://LevelSelection.tscn"
config/icon="res://icon.png"

[autoload]

LevelLoader="*res://LevelLoader.gd"
Constants="*res://Constants.gd"

[display]

window/stretch/mode="viewport"
window/stretch/aspect="expand"

[input]

jump={
"deadzone": 0.5,
"events": [ Object(InputEventKey,"resource_local_to_scene":false,"resource_name":"","device":0,"alt":false,"shift":false,"control":false,"meta":false,"command":false,"pressed":false,"scancode":32,"unicode":0,"echo":false,"script":null)
 ]
}
reset_level={
"deadzone": 0.5,
"events": [ Object(InputEventKey,"resource_local_to_scene":false,"resource_name":"","device":0,"alt":false,"shift":false,"control":false,"meta":false,"command":false,"pressed":false,"scancode":82,"unicode":0,"echo":false,"script":null)
 ]
}

[rendering]

vram_compression/import_etc=true
vram_compression/import_etc2=false
quality/filters/msaa=2
environment/default_environment="res://default_env.tres"
